build/cpu_tb.vcd
$date
	Sun Sep 25 22:06:41 2022
$end
$version
	Icarus Verilog
$end
$timescale
	1ns
$end
$scope module cpu_tb $end
$var reg 1 ! clk $end
$var reg 1 " rst $end
$scope module u_top $end
$var wire 1 ! i_clk $end
$var wire 1 " i_rst $end
$var wire 8 # dout [7:0] $end
$var wire 8 $ addr_lo [7:0] $end
$var wire 8 % addr_hi [7:0] $end
$var wire 16 & addr [15:0] $end
$var wire 1 ' RW $end
$var reg 1 ( IRQ $end
$var reg 1 ) NMI $end
$var reg 1 * READY $end
$var reg 1 + SV $end
$var reg 8 , din [7:0] $end
$scope begin use_init_file $end
$upscope $end
$scope module u_core $end
$var wire 1 ( IRQ $end
$var wire 1 ) NMI $end
$var wire 1 * READY $end
$var wire 1 + SV $end
$var wire 8 - dl [7:0] $end
$var wire 1 ! i_clk $end
$var wire 8 . i_data [7:0] $end
$var wire 1 " i_rst $end
$var wire 8 / o_data [7:0] $end
$var wire 8 0 s [7:0] $end
$var wire 16 1 pcs [15:0] $end
$var wire 8 2 pcls [7:0] $end
$var wire 8 3 pcl [7:0] $end
$var wire 8 4 pchs [7:0] $end
$var wire 8 5 pch [7:0] $end
$var wire 8 6 ir [7:0] $end
$var wire 67 7 ctl [66:0] $end
$var reg 1 8 ACR $end
$var reg 1 9 AVR $end
$var reg 1 ' RW $end
$var reg 8 : a [7:0] $end
$var reg 8 ; add [7:0] $end
$var reg 16 < addr [15:0] $end
$var reg 8 = adh [7:0] $end
$var reg 8 > adh_mux [7:0] $end
$var reg 8 ? adl [7:0] $end
$var reg 8 @ adl_mux [7:0] $end
$var reg 8 A ai [7:0] $end
$var reg 8 B bi [7:0] $end
$var reg 8 C db [7:0] $end
$var reg 8 D db_mux [7:0] $end
$var reg 8 E dor [7:0] $end
$var reg 8 F p [7:0] $end
$var reg 16 G pc [15:0] $end
$var reg 16 H raddr [15:0] $end
$var reg 8 I rs [7:0] $end
$var reg 8 J sb [7:0] $end
$var reg 8 K sb_mux [7:0] $end
$var reg 8 L x [7:0] $end
$var reg 8 M y [7:0] $end
$scope module u_decode $end
$var wire 1 ( IRQ $end
$var wire 1 ) NMI $end
$var wire 1 * READY $end
$var wire 1 + SV $end
$var wire 8 N din [7:0] $end
$var wire 1 ! i_clk $end
$var wire 1 " i_rst $end
$var wire 2 O op_c [1:0] $end
$var wire 3 P op_b [2:0] $end
$var wire 3 Q op_a [2:0] $end
$var wire 8 R current_op [7:0] $end
$var reg 1 S ADDADH $end
$var reg 1 T SYNC $end
$var reg 1 U addr_idx $end
$var reg 67 V ctl [66:0] $end
$var reg 8 W ir [7:0] $end
$var reg 1 X mode_Xind $end
$var reg 1 Y mode_abs $end
$var reg 1 Z mode_absX $end
$var reg 1 [ mode_branch $end
$var reg 1 \ mode_imm $end
$var reg 1 ] mode_impl $end
$var reg 1 ^ mode_indY $end
$var reg 1 _ mode_jump $end
$var reg 1 ` mode_zpg $end
$var reg 1 a mode_zpgX $end
$var reg 1 b op_add $end
$var reg 1 c op_and $end
$var reg 1 d op_asl $end
$var reg 1 e op_cmp $end
$var reg 1 f op_dec $end
$var reg 1 g op_inc $end
$var reg 1 h op_lsr $end
$var reg 1 i op_or $end
$var reg 1 j op_rol $end
$var reg 1 k op_ror $end
$var reg 1 l op_sub $end
$var reg 1 m op_xor $end
$var reg 7 n t [6:0] $end
$var reg 7 o tlast [6:0] $end
$var reg 1 p tskip $end
$scope module u_control_view $end
$var wire 67 q ctl [66:0] $end
$var wire 1 r sync $end
$var wire 1 s ZADL2 $end
$var wire 1 t ZADL1 $end
$var wire 1 u ZADL0 $end
$var wire 1 v ZADH1_7 $end
$var wire 1 w ZADH0 $end
$var wire 1 x ZADD $end
$var wire 1 y YSB $end
$var wire 1 z XSB $end
$var wire 1 { SUMS $end
$var wire 1 | SSB $end
$var wire 1 } SS $end
$var wire 1 ~ SRS $end
$var wire 1 !" SBY $end
$var wire 1 "" SBX $end
$var wire 1 #" SBS $end
$var wire 1 $" SBDB $end
$var wire 1 %" SBADH $end
$var wire 1 &" SBADD $end
$var wire 1 '" SBAC $end
$var wire 1 (" SADL $end
$var wire 1 )" RW $end
$var wire 1 *" PDB $end
$var wire 1 +" PCLPCL $end
$var wire 1 ," PCLDB $end
$var wire 1 -" PCLADL $end
$var wire 1 ." PCHPCH $end
$var wire 1 /" PCHDB $end
$var wire 1 0" PCHADH $end
$var wire 1 1" ORS $end
$var wire 1 2" IV $end
$var wire 1 3" IR5V $end
$var wire 1 4" IR5I $end
$var wire 1 5" IR5D $end
$var wire 1 6" IR5C $end
$var wire 1 7" IPC $end
$var wire 1 8" INVDBADD $end
$var wire 1 9" IADDC $end
$var wire 1 :" EORS $end
$var wire 1 ;" DSA $end
$var wire 1 <" DLDB $end
$var wire 1 =" DLADL $end
$var wire 1 >" DLADH $end
$var wire 1 ?" DBZZ $end
$var wire 1 @" DBSB $end
$var wire 1 A" DBADD $end
$var wire 1 B" DB7N $end
$var wire 1 C" DB6V $end
$var wire 1 D" DB3D $end
$var wire 1 E" DB2I $end
$var wire 1 F" DB1Z $end
$var wire 1 G" DB0C $end
$var wire 1 H" DAA $end
$var wire 1 I" AVRV $end
$var wire 1 J" ANDS $end
$var wire 1 K" ADLPCL $end
$var wire 1 L" ADLADD $end
$var wire 1 M" ADLABL $end
$var wire 1 N" ADHSB $end
$var wire 1 O" ADHPCH $end
$var wire 1 P" ADHABH $end
$var wire 1 Q" ADDSB7 $end
$var wire 1 R" ADDSB0_6 $end
$var wire 1 S" ADDADL $end
$var wire 1 T" ACSB $end
$var wire 1 U" ACRC $end
$var wire 1 V" ACDB $end
$upscope $end
$upscope $end
$upscope $end
$upscope $end
$upscope $end
$enddefinitions $end
#0
$dumpvars
0V"
xU"
xT"
xS"
xR"
xQ"
xP"
xO"
xN"
xM"
xL"
xK"
xJ"
xI"
0H"
xG"
xF"
xE"
xD"
xC"
xB"
xA"
x@"
x?"
x>"
x="
1<"
0;"
x:"
x9"
08"
x7"
x6"
x5"
x4"
x3"
x2"
x1"
x0"
x/"
x."
x-"
0,"
x+"
0*"
1)"
x("
0'"
x&"
x%"
0$"
0#"
0""
0!"
x~
0}
x|
x{
xz
xy
xx
xw
xv
xu
xt
xs
xr
b10x000xxxxxxxxxxxxxxxxxxxx00xxxxxxx000xx0xxx0xxxxx0xxxxxxxxxxxxxx1x q
xp
bx o
bx n
xm
xl
xk
xj
xi
xh
xg
xf
xe
xd
xc
xb
xa
x`
x_
x^
x]
x\
x[
xZ
xY
xX
bx W
b10x000xxxxxxxxxxxxxxxxxxxx00xxxxxxx000xx0xxx0xxxxx0xxxxxxxxxxxxxx1x V
xU
xT
xS
bx R
bx Q
bx P
bx O
b0 N
bx M
bx L
bx K
bx J
bx I
bx H
bx G
bx F
bx E
b0 D
b0 C
b11111111 B
b11111111 A
b11111xxx @
b11111xxx ?
bx >
bx =
bx <
bx ;
bx :
x9
x8
b10x000xxxxxxxxxxxxxxxxxxxx00xxxxxxx000xx0xxx0xxxxx0xxxxxxxxxxxxxx1x 7
bx 6
bx 5
bx 4
bx 3
bx 2
bx 1
bx 0
bx /
b0 .
b0 -
b0 ,
0+
1*
0)
0(
x'
bx &
bx %
bx $
bx #
1"
0!
$end
#1000
b0 $
b0 %
1x
0&"
1A"
0L"
1P"
1M"
0/"
0O"
0K"
0."
0+"
17"
0%"
0>"
0w
0v
10"
0s
0t
0u
0("
0S"
0="
1-"
0T"
0|
0Q"
0R"
0N"
0@"
0y
0z
b0 &
b0 <
b0 2
b0 1
b0 4
b0 ?
b0 =
b0 >
b0 @
bx B
b0 A
0S
b1000000100000000100000000000110000100001010x0xxxxx0xxxxxxxxxxxxxx1x 7
b1000000100000000100000000000110000100001010x0xxxxx0xxxxxxxxxxxxxx1x V
b1000000100000000100000000000110000100001010x0xxxxx0xxxxxxxxxxxxxx1x q
b0 0
b0 3
b0 5
bx C
b10000001 J
b10000001 K
bx D
1T
b0 6
b0 W
b1 n
b0 I
b0 H
b0 #
b0 /
b0 E
b0 M
b0 L
b0 :
b0 G
09
08
b0 ;
b0 F
bx -
bx N
bx ,
bx .
1!
#2000
0!
#3000
1{
0g
0f
0k
0h
0j
0d
0l
0e
1b
0m
0c
0i
b100 o
0p
0[
0_
1U
0a
0`
0^
0X
0]
1\
0Z
0Y
09"
02"
0I"
1U"
04"
05"
03"
06"
0B"
0C"
0D"
0E"
1?"
0F"
0G"
0~
0:"
01"
0J"
b11 Q
b10 P
b1 O
b100000010000000010000000000011000010000101000100000001010000000001x 7
b100000010000000010000000000011000010000101000100000001010000000001x V
b100000010000000010000000000011000010000101000100000001010000000001x q
b1101001 B
b0 A
b1101001 R
b1101001 C
b1101001 D
b0 >
b0 @
b1101001 -
b1101001 N
b1101001 ,
b1101001 .
1!
#4000
0!
0"
#5000
b1 $
b1 &
b1 <
b1 1
b1 2
b1 ?
b1 3
b10 n
b1101001 6
b1101001 W
b1 G
b1101001 ;
1U"
1?"
1{
1b
0]
0_
1\
b1101001 D
b0 >
b1 @
b1101001 B
b0 A
b11 Q
b10 P
b1 O
b100000010000000010000000000011000010000101000100000001010000000001x 7
b100000010000000010000000000011000010000101000100000001010000000001x V
b100000010000000010000000000011000010000101000100000001010000000001x q
b1101001 R
0T
1!
#6000
0!
#7000
b11111111 $
b11111111 %
b1111111111111111 &
b1111111111111111 <
b10 1
b10 2
07"
00"
0-"
1z
b10001 B
b0 A
b11111111 ?
b11111111 =
b10001 C
b0 J
b0 K
b10001 D
b11111111 >
b11111111 @
b10 3
b100000000000000000000001000011000000000101000100000001010000000001x 7
b100000000000000000000001000011000000000101000100000001010000000001x V
b100000000000000000000001000011000000000101000100000001010000000001x q
b10001 -
b10001 N
b10001 ,
b10001 .
b10 G
b1 H
b100 n
1!
#8000
0!
#9000
0U"
0?"
x{
xg
xf
xk
xh
xj
xd
xb
xm
xc
xi
0\
b10 $
b0 %
bx Q
bx P
bx O
xl
xe
17"
10"
1-"
0z
b10 &
b10 <
b10 ?
b0 =
b10000001 J
b0 >
b10 @
bx B
b0 A
bx R
b100000010000000010000000000011000010000101000x00000000000000000001x 7
b100000010000000010000000000011000010000101000x00000000000000000001x V
b100000010000000010000000000011000010000101000x00000000000000000001x q
bx C
b10000001 K
bx D
1T
b1 n
b1111111111111111 H
b10001 ;
bx -
bx N
bx ,
bx .
1!
#10000
0!
#11000
b11 $
b11 &
b11 <
b11 1
b11 2
b11 ?
b0 C
b11 3
b0 -
b0 N
b0 ,
b0 .
b11 G
b10 H
b10 n
bx 6
bx W
0?"
0U"
x{
b0 D
b0 >
b11 @
b0 B
b0 A
b100000010000000010000000000011000010000101000x00000000000000000001x 7
b100000010000000010000000000011000010000101000x00000000000000000001x V
b100000010000000010000000000011000010000101000x00000000000000000001x q
xg
xf
xk
xh
xj
xd
xl
xe
xb
xm
xc
xi
0\
bx Q
bx P
bx O
bx R
0T
1!
#12000
0!
#13000
b11111111 $
b11111111 %
07"
00"
0-"
1z
b1111111111111111 &
b1111111111111111 <
b0 B
b0 A
b100 1
b100 2
b11111111 ?
b11111111 =
b0 J
b0 K
b0 D
b11111111 >
b11111111 @
b100000000000000000000001000011000000000101000x00000000000000000001x 7
b100000000000000000000001000011000000000101000x00000000000000000001x V
b100000000000000000000001000011000000000101000x00000000000000000001x q
b100 3
b100 n
b11 H
b100 G
1!
#14000
0!
#15000
b100 $
b0 %
b100 &
b100 <
17"
10"
1-"
0z
bx B
b0 A
b100 ?
b0 =
bx C
b10000001 J
b10000001 K
bx D
b0 >
b100 @
b100000010000000010000000000011000010000101000x00000000000000000001x 7
b100000010000000010000000000011000010000101000x00000000000000000001x V
b100000010000000010000000000011000010000101000x00000000000000000001x q
bx -
bx N
bx ,
bx .
b1111111111111111 H
1T
b1 n
1!
#16000
0!
#17000
b101 $
b101 &
b101 <
b101 1
b101 2
b101 ?
b0 B
b0 A
b101 3
b0 C
b0 D
b0 >
b101 @
b10 n
b100 H
b101 G
b0 -
b0 N
b0 ,
b0 .
0T
1!
#18000
0!
#19000
b11111111 $
b11111111 %
b1111111111111111 &
b1111111111111111 <
b110 1
b110 2
07"
00"
0-"
1z
b11111111 ?
b11111111 =
b0 J
b0 K
b0 D
b11111111 >
b11111111 @
b0 B
b0 A
b110 3
b100000000000000000000001000011000000000101000x00000000000000000001x 7
b100000000000000000000001000011000000000101000x00000000000000000001x V
b100000000000000000000001000011000000000101000x00000000000000000001x q
b110 G
b101 H
b100 n
1!
#20000
0!
#21000
b110 $
b0 %
17"
10"
1-"
0z
b110 &
b110 <
b110 ?
b0 =
b10000001 J
b0 >
b110 @
bx B
b0 A
b100000010000000010000000000011000010000101000x00000000000000000001x 7
b100000010000000010000000000011000010000101000x00000000000000000001x V
b100000010000000010000000000011000010000101000x00000000000000000001x q
bx C
b10000001 K
bx D
1T
b1 n
b1111111111111111 H
bx -
bx N
bx ,
bx .
1!
#22000
0!
#23000
b111 $
b111 &
b111 <
b0 B
b0 A
b111 1
b111 2
b111 ?
b0 C
b0 D
b0 >
b111 @
b111 3
b0 -
b0 N
b0 ,
b0 .
b111 G
b110 H
b10 n
0T
1!
#24000
0!
#25000
b11111111 $
b11111111 %
07"
00"
0-"
1z
b1111111111111111 &
b1111111111111111 <
b0 B
b0 A
b1000 1
b1000 2
b11111111 ?
b11111111 =
b0 J
b0 K
b0 D
b11111111 >
b11111111 @
b100000000000000000000001000011000000000101000x00000000000000000001x 7
b100000000000000000000001000011000000000101000x00000000000000000001x V
b100000000000000000000001000011000000000101000x00000000000000000001x q
b1000 3
b100 n
b111 H
b1000 G
1!
#26000
0!
#27000
b1000 $
b0 %
b1000 &
b1000 <
17"
10"
1-"
0z
bx B
b0 A
b1000 ?
b0 =
bx C
b10000001 J
b10000001 K
bx D
b0 >
b1000 @
b100000010000000010000000000011000010000101000x00000000000000000001x 7
b100000010000000010000000000011000010000101000x00000000000000000001x V
b100000010000000010000000000011000010000101000x00000000000000000001x q
bx -
bx N
bx ,
bx .
b1111111111111111 H
1T
b1 n
1!
#28000
0!
#29000
b1001 $
b1001 &
b1001 <
b1001 1
b1001 2
b1001 ?
b0 B
b0 A
b1001 3
b0 C
b0 D
b0 >
b1001 @
b10 n
b1000 H
b1001 G
b0 -
b0 N
b0 ,
b0 .
0T
1!
#30000
0!
#31000
b11111111 $
b11111111 %
b1111111111111111 &
b1111111111111111 <
b1010 1
b1010 2
07"
00"
0-"
1z
b11111111 ?
b11111111 =
b0 J
b0 K
b0 D
b11111111 >
b11111111 @
b0 B
b0 A
b1010 3
b100000000000000000000001000011000000000101000x00000000000000000001x 7
b100000000000000000000001000011000000000101000x00000000000000000001x V
b100000000000000000000001000011000000000101000x00000000000000000001x q
b1010 G
b1001 H
b100 n
1!
#32000
0!
#33000
b1010 $
b0 %
17"
10"
1-"
0z
b1010 &
b1010 <
b1010 ?
b0 =
b10000001 J
b0 >
b1010 @
bx B
b0 A
b100000010000000010000000000011000010000101000x00000000000000000001x 7
b100000010000000010000000000011000010000101000x00000000000000000001x V
b100000010000000010000000000011000010000101000x00000000000000000001x q
bx C
b10000001 K
bx D
1T
b1 n
b1111111111111111 H
bx -
bx N
bx ,
bx .
1!
#34000
0!
#35000
b1011 $
b1011 &
b1011 <
b0 B
b0 A
b1011 1
b1011 2
b1011 ?
b0 C
b0 D
b0 >
b1011 @
b1011 3
b0 -
b0 N
b0 ,
b0 .
b1011 G
b1010 H
b10 n
0T
1!
#36000
0!
#37000
b11111111 $
b11111111 %
07"
00"
0-"
1z
b1111111111111111 &
b1111111111111111 <
b0 B
b0 A
b1100 1
b1100 2
b11111111 ?
b11111111 =
b0 J
b0 K
b0 D
b11111111 >
b11111111 @
b100000000000000000000001000011000000000101000x00000000000000000001x 7
b100000000000000000000001000011000000000101000x00000000000000000001x V
b100000000000000000000001000011000000000101000x00000000000000000001x q
b1100 3
b100 n
b1011 H
b1100 G
1!
#38000
0!
#39000
b1100 $
b0 %
b1100 &
b1100 <
17"
10"
1-"
0z
bx B
b0 A
b1100 ?
b0 =
bx C
b10000001 J
b10000001 K
bx D
b0 >
b1100 @
b100000010000000010000000000011000010000101000x00000000000000000001x 7
b100000010000000010000000000011000010000101000x00000000000000000001x V
b100000010000000010000000000011000010000101000x00000000000000000001x q
bx -
bx N
bx ,
bx .
b1111111111111111 H
1T
b1 n
1!
#40000
0!
#41000
b1101 $
b1101 &
b1101 <
b1101 1
b1101 2
b1101 ?
b0 B
b0 A
b1101 3
b0 C
b0 D
b0 >
b1101 @
b10 n
b1100 H
b1101 G
b0 -
b0 N
b0 ,
b0 .
0T
1!
#42000
0!
#43000
b11111111 $
b11111111 %
b1111111111111111 &
b1111111111111111 <
b1110 1
b1110 2
07"
00"
0-"
1z
b11111111 ?
b11111111 =
b0 J
b0 K
b0 D
b11111111 >
b11111111 @
b0 B
b0 A
b1110 3
b100000000000000000000001000011000000000101000x00000000000000000001x 7
b100000000000000000000001000011000000000101000x00000000000000000001x V
b100000000000000000000001000011000000000101000x00000000000000000001x q
b1110 G
b1101 H
b100 n
1!
#44000
0!
#45000
b1110 $
b0 %
17"
10"
1-"
0z
b1110 &
b1110 <
b1110 ?
b0 =
b10000001 J
b0 >
b1110 @
bx B
b0 A
b100000010000000010000000000011000010000101000x00000000000000000001x 7
b100000010000000010000000000011000010000101000x00000000000000000001x V
b100000010000000010000000000011000010000101000x00000000000000000001x q
bx C
b10000001 K
bx D
1T
b1 n
b1111111111111111 H
bx -
bx N
bx ,
bx .
1!
#46000
0!
#47000
b1111 $
b1111 &
b1111 <
b0 B
b0 A
b1111 1
b1111 2
b1111 ?
b0 C
b0 D
b0 >
b1111 @
b1111 3
b0 -
b0 N
b0 ,
b0 .
b1111 G
b1110 H
b10 n
0T
1!
#48000
0!
#49000
b11111111 $
b11111111 %
07"
00"
0-"
1z
b1111111111111111 &
b1111111111111111 <
b0 B
b0 A
b10000 1
b10000 2
b11111111 ?
b11111111 =
b0 J
b0 K
b0 D
b11111111 >
b11111111 @
b100000000000000000000001000011000000000101000x00000000000000000001x 7
b100000000000000000000001000011000000000101000x00000000000000000001x V
b100000000000000000000001000011000000000101000x00000000000000000001x q
b10000 3
b100 n
b1111 H
b10000 G
1!
#50000
0!
#51000
b10000 $
b0 %
b10000 &
b10000 <
17"
10"
1-"
0z
bx B
b0 A
b10000 ?
b0 =
bx C
b10000001 J
b10000001 K
bx D
b0 >
b10000 @
b100000010000000010000000000011000010000101000x00000000000000000001x 7
b100000010000000010000000000011000010000101000x00000000000000000001x V
b100000010000000010000000000011000010000101000x00000000000000000001x q
bx -
bx N
bx ,
bx .
b1111111111111111 H
1T
b1 n
1!
#52000
0!
#53000
b10001 $
bx B
b0 A
b10001 &
b10001 <
b10001 1
b10001 2
b10001 ?
bx D
b0 >
b10001 @
b10001 3
b10 n
b10000 H
b10001 G
0T
1!
#54000
0!
#55000
b11111111 $
b11111111 %
b1111111111111111 &
b1111111111111111 <
b10010 1
b10010 2
07"
00"
0-"
1z
b11111111 ?
b11111111 =
b0 J
b0 K
bx D
b11111111 >
b11111111 @
bx B
b0 A
b10010 3
b100000000000000000000001000011000000000101000x00000000000000000001x 7
b100000000000000000000001000011000000000101000x00000000000000000001x V
b100000000000000000000001000011000000000101000x00000000000000000001x q
b10010 G
b10001 H
b100 n
1!
#56000
0!
#57000
b10010 $
b0 %
17"
10"
1-"
0z
b10010 &
b10010 <
b10010 ?
b0 =
b10000001 J
b10000001 K
bx D
b0 >
b10010 @
bx B
b0 A
b100000010000000010000000000011000010000101000x00000000000000000001x 7
b100000010000000010000000000011000010000101000x00000000000000000001x V
b100000010000000010000000000011000010000101000x00000000000000000001x q
1T
b1 n
b1111111111111111 H
1!
#58000
0!
#59000
b10011 $
bx B
b0 A
b10011 &
b10011 <
b10011 1
b10011 2
b10011 ?
bx D
b0 >
b10011 @
b10011 3
b10011 G
b10010 H
b10 n
0T
1!
#60000
0!
#61000
b11111111 $
b11111111 %
07"
00"
0-"
1z
b1111111111111111 &
b1111111111111111 <
bx B
b0 A
b10100 1
b10100 2
b11111111 ?
b11111111 =
b0 J
b0 K
bx D
b11111111 >
b11111111 @
b100000000000000000000001000011000000000101000x00000000000000000001x 7
b100000000000000000000001000011000000000101000x00000000000000000001x V
b100000000000000000000001000011000000000101000x00000000000000000001x q
b10100 3
b100 n
b10011 H
b10100 G
1!
#62000
0!
#63000
b10100 $
b0 %
b10100 &
b10100 <
17"
10"
1-"
0z
b10100 ?
b0 =
b10000001 J
b10000001 K
bx D
b0 >
b10100 @
bx B
b0 A
b100000010000000010000000000011000010000101000x00000000000000000001x 7
b100000010000000010000000000011000010000101000x00000000000000000001x V
b100000010000000010000000000011000010000101000x00000000000000000001x q
b1111111111111111 H
1T
b1 n
1!
#64000
0!
#65000
b10101 $
bx B
b0 A
b10101 &
b10101 <
b10101 1
b10101 2
b10101 ?
bx D
b0 >
b10101 @
b10101 3
b10 n
b10100 H
b10101 G
0T
1!
#66000
0!
#67000
b11111111 $
b11111111 %
b1111111111111111 &
b1111111111111111 <
b10110 1
b10110 2
07"
00"
0-"
1z
b11111111 ?
b11111111 =
b0 J
b0 K
bx D
b11111111 >
b11111111 @
bx B
b0 A
b10110 3
b100000000000000000000001000011000000000101000x00000000000000000001x 7
b100000000000000000000001000011000000000101000x00000000000000000001x V
b100000000000000000000001000011000000000101000x00000000000000000001x q
b10110 G
b10101 H
b100 n
1!
#68000
0!
#69000
b10110 $
b0 %
17"
10"
1-"
0z
b10110 &
b10110 <
b10110 ?
b0 =
b10000001 J
b10000001 K
bx D
b0 >
b10110 @
bx B
b0 A
b100000010000000010000000000011000010000101000x00000000000000000001x 7
b100000010000000010000000000011000010000101000x00000000000000000001x V
b100000010000000010000000000011000010000101000x00000000000000000001x q
1T
b1 n
b1111111111111111 H
1!
#70000
0!
#71000
b10111 $
bx B
b0 A
b10111 &
b10111 <
b10111 1
b10111 2
b10111 ?
bx D
b0 >
b10111 @
b10111 3
b10111 G
b10110 H
b10 n
0T
1!
#72000
0!
#73000
b11111111 $
b11111111 %
07"
00"
0-"
1z
b1111111111111111 &
b1111111111111111 <
bx B
b0 A
b11000 1
b11000 2
b11111111 ?
b11111111 =
b0 J
b0 K
bx D
b11111111 >
b11111111 @
b100000000000000000000001000011000000000101000x00000000000000000001x 7
b100000000000000000000001000011000000000101000x00000000000000000001x V
b100000000000000000000001000011000000000101000x00000000000000000001x q
b11000 3
b100 n
b10111 H
b11000 G
1!
#74000
0!
#75000
b11000 $
b0 %
b11000 &
b11000 <
17"
10"
1-"
0z
b11000 ?
b0 =
b10000001 J
b10000001 K
bx D
b0 >
b11000 @
bx B
b0 A
b100000010000000010000000000011000010000101000x00000000000000000001x 7
b100000010000000010000000000011000010000101000x00000000000000000001x V
b100000010000000010000000000011000010000101000x00000000000000000001x q
b1111111111111111 H
1T
b1 n
1!
#76000
0!
#77000
b11001 $
bx B
b0 A
b11001 &
b11001 <
b11001 1
b11001 2
b11001 ?
bx D
b0 >
b11001 @
b11001 3
b10 n
b11000 H
b11001 G
0T
1!
#78000
0!
#79000
b11111111 $
b11111111 %
b1111111111111111 &
b1111111111111111 <
b11010 1
b11010 2
07"
00"
0-"
1z
b11111111 ?
b11111111 =
b0 J
b0 K
bx D
b11111111 >
b11111111 @
bx B
b0 A
b11010 3
b100000000000000000000001000011000000000101000x00000000000000000001x 7
b100000000000000000000001000011000000000101000x00000000000000000001x V
b100000000000000000000001000011000000000101000x00000000000000000001x q
b11010 G
b11001 H
b100 n
1!
#80000
0!
#81000
b11010 $
b0 %
17"
10"
1-"
0z
b11010 &
b11010 <
b11010 ?
b0 =
b10000001 J
b10000001 K
bx D
b0 >
b11010 @
bx B
b0 A
b100000010000000010000000000011000010000101000x00000000000000000001x 7
b100000010000000010000000000011000010000101000x00000000000000000001x V
b100000010000000010000000000011000010000101000x00000000000000000001x q
1T
b1 n
b1111111111111111 H
1!
#82000
0!
#83000
b11011 $
bx B
b0 A
b11011 &
b11011 <
b11011 1
b11011 2
b11011 ?
bx D
b0 >
b11011 @
b11011 3
b11011 G
b11010 H
b10 n
0T
1!
#84000
0!
#85000
b11111111 $
b11111111 %
07"
00"
0-"
1z
b1111111111111111 &
b1111111111111111 <
bx B
b0 A
b11100 1
b11100 2
b11111111 ?
b11111111 =
b0 J
b0 K
bx D
b11111111 >
b11111111 @
b100000000000000000000001000011000000000101000x00000000000000000001x 7
b100000000000000000000001000011000000000101000x00000000000000000001x V
b100000000000000000000001000011000000000101000x00000000000000000001x q
b11100 3
b100 n
b11011 H
b11100 G
1!
#86000
0!
#87000
b11100 $
b0 %
b11100 &
b11100 <
17"
10"
1-"
0z
b11100 ?
b0 =
b10000001 J
b10000001 K
bx D
b0 >
b11100 @
bx B
b0 A
b100000010000000010000000000011000010000101000x00000000000000000001x 7
b100000010000000010000000000011000010000101000x00000000000000000001x V
b100000010000000010000000000011000010000101000x00000000000000000001x q
b1111111111111111 H
1T
b1 n
1!
#88000
0!
#89000
b11101 $
bx B
b0 A
b11101 &
b11101 <
b11101 1
b11101 2
b11101 ?
bx D
b0 >
b11101 @
b11101 3
b10 n
b11100 H
b11101 G
0T
1!
#90000
0!
#91000
b11111111 $
b11111111 %
b1111111111111111 &
b1111111111111111 <
b11110 1
b11110 2
07"
00"
0-"
1z
b11111111 ?
b11111111 =
b0 J
b0 K
bx D
b11111111 >
b11111111 @
bx B
b0 A
b11110 3
b100000000000000000000001000011000000000101000x00000000000000000001x 7
b100000000000000000000001000011000000000101000x00000000000000000001x V
b100000000000000000000001000011000000000101000x00000000000000000001x q
b11110 G
b11101 H
b100 n
1!
#92000
0!
#93000
b11110 $
b0 %
17"
10"
1-"
0z
b11110 &
b11110 <
b11110 ?
b0 =
b10000001 J
b10000001 K
bx D
b0 >
b11110 @
bx B
b0 A
b100000010000000010000000000011000010000101000x00000000000000000001x 7
b100000010000000010000000000011000010000101000x00000000000000000001x V
b100000010000000010000000000011000010000101000x00000000000000000001x q
1T
b1 n
b1111111111111111 H
1!
#94000
0!
#95000
b11111 $
bx B
b0 A
b11111 &
b11111 <
b11111 1
b11111 2
b11111 ?
bx D
b0 >
b11111 @
b11111 3
b11111 G
b11110 H
b10 n
0T
1!
#96000
0!
#97000
b11111111 $
b11111111 %
07"
00"
0-"
1z
b1111111111111111 &
b1111111111111111 <
bx B
b0 A
b100000 1
b100000 2
b11111111 ?
b11111111 =
b0 J
b0 K
bx D
b11111111 >
b11111111 @
b100000000000000000000001000011000000000101000x00000000000000000001x 7
b100000000000000000000001000011000000000101000x00000000000000000001x V
b100000000000000000000001000011000000000101000x00000000000000000001x q
b100000 3
b100 n
b11111 H
b100000 G
1!
#98000
0!
#99000
b100000 $
b0 %
b100000 &
b100000 <
17"
10"
1-"
0z
b100000 ?
b0 =
b10000001 J
b10000001 K
bx D
b0 >
b100000 @
bx B
b0 A
b100000010000000010000000000011000010000101000x00000000000000000001x 7
b100000010000000010000000000011000010000101000x00000000000000000001x V
b100000010000000010000000000011000010000101000x00000000000000000001x q
b1111111111111111 H
1T
b1 n
1!
